<?xml version="1.0" standalone="no"?>
<!DOCTYPE svg PUBLIC "-//W3C//DTD SVG 1.1//EN" "http://www.w3.org/Graphics/SVG/1.1/DTD/svg11.dtd" >
<svg xmlns="http://www.w3.org/2000/svg">
<metadata>Generated by IcoMoon</metadata>
<defs>
<font id="icons" horiz-adv-x="1024">
<font-face units-per-em="1024" ascent="960" descent="-64" />
<missing-glyph horiz-adv-x="1024" />
<glyph unicode="&#x20;" horiz-adv-x="512" d="" />
<glyph unicode="&#xe900;" glyph-name="environment" d="M858.88 421.632c0 0-35.808 58.656-75.616 58.656-39.744 0-81.504-60.64-81.504-60.64s-43.744 60.576-79.552 60.576c-30.304 0-65.984-41.664-76.32-54.528v-231.68c0-23.2-2.368-42.816-7.136-59.008-4.736-16.128-11.776-29.248-21.088-39.36-9.28-10.112-20.864-17.504-34.752-22.048-13.856-4.576-29.92-6.816-48.16-6.816-16.608 0-31.456 2.496-44.608 7.488-13.152 5.056-24.224 12.192-33.248 21.504s-15.968 20.512-20.8 33.696c-4.8 13.12-7.264 27.808-7.264 44v22.368h63.36c0-20.992-0.16-48.512 7.488-59.2 7.648-10.624 19.328-16 35.040-16 10.592 0 25.728 5.248 25.728 5.248s11.584 8.32 15.072 14.624c3.456 6.24 6.976 22.688 6.976 22.688s1.792 18.56 1.792 29.184v236.992c-14.176 16.032-48.96 51.904-76.832 51.904-35.776 0-85.504-59.648-85.504-59.648s-47.712 59.648-79.552 59.648c-31.808 0-77.536-59.648-77.536-59.648s-13.952 312.192 302.24 344l45.76 63.616 43.776-63.616c326.048-19.872 302.24-344 302.24-344z" />
<glyph unicode="&#xe901;" glyph-name="incident" d="M554 340.667v172h-84v-172h84zM554 170.667v86h-84v-86h84zM42 42.667l470 810 470-810h-940z" />
<glyph unicode="&#xe902;" glyph-name="parking" d="M564 468.667c46 0 84 40 84 86s-38 86-84 86h-138v-172h138zM554 810.667c142 0 256-114 256-256s-114-256-256-256h-128v-256h-170v768h298z" />
<glyph unicode="&#xe903;" glyph-name="tracking" d="M814 728.667c78-78 124-184 124-302 0-236-190-426-426-426s-426 190-426 426 190 426 426 426h42v-352c26-14 44-42 44-74 0-46-40-86-86-86s-86 40-86 86c0 32 18 60 44 74v90c-74-20-128-84-128-164 0-94 76-170 170-170s170 76 170 170c0 46-20 88-50 120l60 60c46-46 76-110 76-180 0-142-114-256-256-256s-256 114-256 256c0 126 92 232 214 252v86c-168-20-300-164-300-338 0-188 154-342 342-342s342 154 342 342c0 94-38 180-100 242z" />
<glyph unicode="&#xe904;" glyph-name="car" d="M214 468.667h596l-64 192h-468zM746 256.667c36 0 64 28 64 64s-28 64-64 64-64-28-64-64 28-64 64-64zM278 256.667c36 0 64 28 64 64s-28 64-64 64-64-28-64-64 28-64 64-64zM808 682.667l88-256v-342c0-24-18-42-42-42h-44c-24 0-42 18-42 42v44h-512v-44c0-24-18-42-42-42h-44c-24 0-42 18-42 42v342l88 256c8 26 34 42 62 42h468c28 0 54-16 62-42z" />
<glyph unicode="&#xe905;" glyph-name="traffic" d="M512 554.667c48 0 86 40 86 86 0 48-40 84-86 84-48 0-86-36-86-84 0-46 38-86 86-86zM512 340.667c48 0 86 40 86 86s-40 86-86 86c-48 0-86-40-86-86s38-86 86-86zM512 128.667c48 0 86 38 86 84s-40 86-86 86c-48 0-86-40-86-86s38-84 86-84zM854 512.667c0-80-54-146-128-166v-48h128c0-80-54-144-128-164v-50c0-24-20-42-44-42h-340c-24 0-44 18-44 42v50c-74 20-128 84-128 164h128v48c-74 20-128 86-128 166h128v48c-74 20-128 84-128 164h128v44c0 24 20 42 44 42h340c24 0 44-18 44-42v-44h128c0-80-54-144-128-164v-48h128z" />
<glyph unicode="&#xe906;" glyph-name="police" d="M753.391 508.121c-2.99 4.212-6.246 8.431-9.578 12.739-13.462 17.394-27.375 35.383-27.375 60.204 0 30.426 24.747 59.023 24.986 59.29 9.619 10.902 9.783 28.126 0.355 39.212l-34.734 40.796c-5.345 6.287-13.257 9.892-21.716 9.892-6.212 0-12.076-1.932-16.944-5.584-0.355-0.266-35.772-26.549-68.99-26.549-32.324 0-67.229 25.006-67.564 25.252-10.411 7.564-28.317 8.813-39.704 2.697-0.341-0.184-34.311-18.227-67.516-18.227-33.082 0-68.656 26.296-69.004 26.556-4.867 3.652-10.725 5.577-16.937 5.577-8.451 0-16.364-3.604-21.716-9.892l-34.72-40.796c-9.428-11.080-9.277-28.297 0.335-39.199 0.253-0.287 24.999-28.877 24.999-59.31 0-24.829-13.92-42.81-27.375-60.204-3.331-4.301-6.588-8.527-9.578-12.732-30.652-43.24-35.403-170.366 0.355-215.047 78.93-98.673 216.201-133.891 222.003-135.345 5.98-1.502 14.118-2.355 22.33-2.355v0c4.021 0 9.953 0.212 15.374 1.229 5.816 1.092 143.223 27.825 222.365 126.751 35.758 44.694 31.007 171.814 0.348 215.047v0zM573.44 396.696l25.723-79.155-67.331 48.906c-5.407 3.932-12.445 6.103-19.825 6.103s-14.418-2.164-19.825-6.096l-67.331-48.913 25.709 79.155c4.246 13.073-1.14 29.635-12.254 37.717l-67.331 48.913h83.231c13.742 0 27.832 10.24 32.079 23.306l25.716 79.162 25.723-79.155c4.246-13.073 18.343-23.306 32.079-23.306h83.217l-67.325-48.92c-11.114-8.083-16.5-24.644-12.254-37.717v0z" />
</font></defs></svg>