{
  "version": 8,
  "name": "Klokantech Basic",
  "metadata": {
    "mapbox:autocomposite": false,
    "mapbox:type": "template",
    "maputnik:renderer": "mbgljs",
    "openmaptiles:version": "3.x",
    "openmaptiles:mapbox:owner": "openmaptiles",
    "openmaptiles:mapbox:source:url": "mapbox://openmaptiles.4qljc88t"
  },
  "sources": {
    "openmaptiles": {
      "type": "vector",
      "url": "https://free.tilehosting.com/data/v3.json?key={key}"
    },
    "mtc25mcatoff": {
      "type": "vector",
      "tiles": [
        "https: //tilemaps.icgc.cat/tileserver/tileserver.php/mtc25mcatoff_7a13/{z}/{x}/{y}.pbf"
      ],
      "maxzoom": 13,
      "attribution": "Mapa &copy; <a href='http://www.icgc.cat'>Institut Cartogràfic i Geològic de Catalunya</a>"
    }
  },
  "sprite": "https://geoserveis.icgc.cat/contextmaps/sprites/sprite@1",
  "glyphs": "mapbox://fonts/openmaptiles/{fontstack}/{range}.pbf",
  "layers": [
    {
      "id": "background",
      "type": "background",
      "paint": {
        "background-color": "rgba(232, 229, 216, 0.08)"
      }
    },
    {
      "id": "landuse-residential",
      "type": "fill",
      "source": "openmaptiles",
      "source-layer": "landuse",
      "filter": [
        "all",
        [
          "==",
          "$type",
          "Polygon"
        ],
        [
          "==",
          "class",
          "residential"
        ]
      ],
      "layout": {
        "visibility": "visible"
      },
      "paint": {
        "fill-color": "rgba(224, 213, 210, 0.04)",
        "fill-opacity": 0.7
      }
    },
    {
      "id": "landcover_grass",
      "type": "fill",
      "source": "openmaptiles",
      "source-layer": "landcover",
      "filter": [
        "==",
        "class",
        "grass"
      ],
      "paint": {
        "fill-color": "rgba(148, 146, 144, 0.14)",
        "fill-opacity": 0.45
      }
    },
    {
      "id": "park",
      "type": "fill",
      "source": "openmaptiles",
      "source-layer": "park",
      "paint": {
        "fill-color": "rgba(96, 92, 88, 0.14)",
        "fill-opacity": 1
      }
    },
    {
      "id": "landcover_wood",
      "type": "fill",
      "source": "openmaptiles",
      "source-layer": "landcover",
      "filter": [
        "==",
        "class",
        "wood"
      ],
      "paint": {
        "fill-color": "rgba(158, 153, 136, 0.14)",
        "fill-opacity": {
          "base": 1,
          "stops": [
            [
              8,
              0.6
            ],
            [
              22,
              1
            ]
          ]
        }
      }
    },
    {
      "id": "water",
      "type": "fill",
      "source": "openmaptiles",
      "source-layer": "water",
      "filter": [
        "==",
        "$type",
        "Polygon"
      ],
      "paint": {
        "fill-color": "rgba(30, 108, 186, 0.08)"
      }
    },
    {
      "id": "landcover-ice-shelf",
      "type": "fill",
      "source": "openmaptiles",
      "source-layer": "landcover",
      "filter": [
        "==",
        "subclass",
        "ice_shelf"
      ],
      "layout": {
        "visibility": "visible"
      },
      "paint": {
        "fill-color": "rgba(224, 222, 215, 0.14)",
        "fill-opacity": 0.8
      }
    },
    {
      "id": "landcover-glacier",
      "type": "fill",
      "source": "openmaptiles",
      "source-layer": "landcover",
      "filter": [
        "==",
        "subclass",
        "glacier"
      ],
      "layout": {
        "visibility": "visible"
      },
      "paint": {
        "fill-color": "hsl(47, 22%, 94%)",
        "fill-opacity": {
          "base": 1,
          "stops": [
            [
              0,
              1
            ],
            [
              8,
              0.5
            ]
          ]
        }
      }
    },
    {
      "id": "landcover_sand",
      "type": "fill",
      "metadata": {},
      "source": "openmaptiles",
      "source-layer": "landcover",
      "filter": [
        "all",
        [
          "in",
          "class",
          "sand"
        ]
      ],
      "paint": {
        "fill-antialias": false,
        "fill-color": "rgba(232, 214, 38, 0.31)",
        "fill-opacity": 0.3
      }
    },
    {
      "id": "landuse",
      "type": "fill",
      "source": "openmaptiles",
      "source-layer": "landuse",
      "filter": [
        "==",
        "class",
        "agriculture"
      ],
      "layout": {
        "visibility": "visible"
      },
      "paint": {
        "fill-color": "#eae0d0"
      }
    },
    {
      "id": "landuse_overlay_national_park",
      "type": "fill",
      "source": "openmaptiles",
      "source-layer": "landcover",
      "filter": [
        "==",
        "class",
        "national_park"
      ],
      "paint": {
        "fill-color": "#E1EBB0",
        "fill-opacity": {
          "base": 1,
          "stops": [
            [
              5,
              0
            ],
            [
              9,
              0.75
            ]
          ]
        }
      }
    },
    {
      "id": "park_outline",
      "type": "line",
      "source": "openmaptiles",
      "source-layer": "park",
      "layout": {},
      "paint": {
        "line-color": "rgba(154, 197, 154, 0.33)",
        "line-dasharray": [
          0.5,
          1
        ]
      }
    },
    {
      "id": "waterway-tunnel",
      "type": "line",
      "source": "openmaptiles",
      "source-layer": "waterway",
      "filter": [
        "all",
        [
          "==",
          "$type",
          "LineString"
        ],
        [
          "==",
          "brunnel",
          "tunnel"
        ]
      ],
      "paint": {
        "line-color": "rgba(97, 202, 228, 1)",
        "line-width": {
          "base": 1.4,
          "stops": [
            [
              8,
              1
            ],
            [
              20,
              2
            ]
          ]
        },
        "line-opacity": 1,
        "line-gap-width": {
          "stops": [
            [
              12,
              0
            ],
            [
              20,
              6
            ]
          ]
        },
        "line-dasharray": [
          3,
          3
        ]
      }
    },
    {
      "id": "waterway",
      "type": "line",
      "source": "openmaptiles",
      "source-layer": "waterway",
      "filter": [
        "all",
        [
          "==",
          "$type",
          "LineString"
        ],
        [
          "!in",
          "brunnel",
          "tunnel",
          "bridge"
        ]
      ],
      "paint": {
        "line-color": "#00a1cb",
        "line-width": {
          "base": 1.4,
          "stops": [
            [
              8,
              1
            ],
            [
              20,
              8
            ]
          ]
        },
        "line-opacity": 1
      }
    },
    {
      "id": "tunnel_railway_transit",
      "type": "line",
      "source": "openmaptiles",
      "source-layer": "transportation",
      "minzoom": 0,
      "filter": [
        "all",
        [
          "==",
          "$type",
          "LineString"
        ],
        [
          "==",
          "brunnel",
          "tunnel"
        ],
        [
          "==",
          "class",
          "transit"
        ]
      ],
      "layout": {
        "line-cap": "butt",
        "line-join": "miter"
      },
      "paint": {
        "line-color": "rgba(135, 122, 125, 1)",
        "line-opacity": {
          "base": 1,
          "stops": [
            [
              11,
              0
            ],
            [
              16,
              1
            ]
          ]
        },
        "line-dasharray": [
          3,
          3
        ]
      }
    },
    {
      "id": "housenumber",
      "type": "symbol",
      "source": "openmaptiles",
      "source-layer": "housenumber",
      "minzoom": 17,
      "filter": [
        "==",
        "$type",
        "Point"
      ],
      "layout": {
        "text-field": "{housenumber}",
        "text-size": 10,
        "text-font": [
          "Noto Sans Regular"
        ]
      },
      "paint": {
        "text-color": "rgba(212, 177, 146, 1)"
      }
    },
    {
      "id": "road_bridge_area",
      "type": "fill",
      "source": "openmaptiles",
      "source-layer": "transportation",
      "filter": [
        "all",
        [
          "==",
          "$type",
          "Polygon"
        ],
        [
          "in",
          "brunnel",
          "bridge"
        ]
      ],
      "layout": {},
      "paint": {
        "fill-color": "rgba(135, 135, 99, 0.65)",
        "fill-opacity": 0.5
      }
    },
    {
      "id": "road_path",
      "type": "line",
      "source": "openmaptiles",
      "source-layer": "transportation",
      "filter": [
        "all",
        [
          "==",
          "$type",
          "LineString"
        ],
        [
          "in",
          "class",
          "path",
          "track"
        ]
      ],
      "layout": {
        "line-cap": "square",
        "line-join": "bevel"
      },
      "paint": {
        "line-color": "rgba(247, 247, 247, 0.63)",
        "line-dasharray": [
          1,
          1
        ],
        "line-width": {
          "base": 1.55,
          "stops": [
            [
              4,
              0.25
            ],
            [
              20,
              10
            ]
          ]
        }
      }
    },
    {
      "id": "road_minor",
      "type": "line",
      "source": "openmaptiles",
      "source-layer": "transportation",
      "filter": [
        "all",
        [
          "==",
          "$type",
          "LineString"
        ],
        [
          "in",
          "class",
          "minor",
          "service"
        ]
      ],
      "layout": {
        "line-cap": "round",
        "line-join": "round"
      },
      "paint": {
        "line-color": "rgba(247, 247, 247, 0.29)",
        "line-width": {
          "base": 1.55,
          "stops": [
            [
              4,
              0.25
            ],
            [
              20,
              30
            ]
          ]
        }
      }
    },
    {
      "id": "tunnel_minor",
      "type": "line",
      "source": "openmaptiles",
      "source-layer": "transportation",
      "filter": [
        "all",
        [
          "==",
          "$type",
          "LineString"
        ],
        [
          "==",
          "brunnel",
          "tunnel"
        ],
        [
          "==",
          "class",
          "minor_road"
        ]
      ],
      "layout": {
        "line-cap": "butt",
        "line-join": "miter"
      },
      "paint": {
        "line-color": "rgba(239, 239, 239, 1)",
        "line-width": {
          "base": 1.55,
          "stops": [
            [
              4,
              0.25
            ],
            [
              20,
              30
            ]
          ]
        },
        "line-dasharray": [
          0.36,
          0.18
        ]
      }
    },
    {
      "id": "tunnel_major",
      "type": "line",
      "source": "openmaptiles",
      "source-layer": "transportation",
      "filter": [
        "all",
        [
          "==",
          "$type",
          "LineString"
        ],
        [
          "==",
          "brunnel",
          "tunnel"
        ],
        [
          "in",
          "class",
          "primary",
          "secondary",
          "tertiary",
          "trunk"
        ]
      ],
      "layout": {
        "line-cap": "butt",
        "line-join": "miter"
      },
      "paint": {
        "line-color": "rgba(255, 255, 255, 0.67)",
        "line-width": {
          "base": 1.4,
          "stops": [
            [
              6,
              0.5
            ],
            [
              20,
              30
            ]
          ]
        },
        "line-dasharray": [
          0.28,
          0.14
        ]
      }
    },
    {
      "id": "aeroway-area",
      "type": "fill",
      "metadata": {
        "mapbox:group": "1444849345966.4436"
      },
      "source": "openmaptiles",
      "source-layer": "aeroway",
      "minzoom": 4,
      "filter": [
        "all",
        [
          "==",
          "$type",
          "Polygon"
        ],
        [
          "in",
          "class",
          "runway",
          "taxiway"
        ]
      ],
      "layout": {
        "visibility": "visible"
      },
      "paint": {
        "fill-opacity": {
          "base": 1,
          "stops": [
            [
              13,
              0
            ],
            [
              14,
              1
            ]
          ]
        },
        "fill-color": "rgba(255, 255, 255, 1)"
      }
    },
    {
      "id": "aeroway-taxiway",
      "type": "line",
      "metadata": {
        "mapbox:group": "1444849345966.4436"
      },
      "source": "openmaptiles",
      "source-layer": "aeroway",
      "minzoom": 12,
      "filter": [
        "all",
        [
          "in",
          "class",
          "taxiway"
        ],
        [
          "==",
          "$type",
          "LineString"
        ]
      ],
      "layout": {
        "line-cap": "round",
        "line-join": "round",
        "visibility": "visible"
      },
      "paint": {
        "line-color": "rgba(255, 255, 255, 1)",
        "line-width": {
          "base": 1.5,
          "stops": [
            [
              12,
              1
            ],
            [
              17,
              10
            ]
          ]
        },
        "line-opacity": 1
      }
    },
    {
      "id": "aeroway-runway",
      "type": "line",
      "metadata": {
        "mapbox:group": "1444849345966.4436"
      },
      "source": "openmaptiles",
      "source-layer": "aeroway",
      "minzoom": 4,
      "filter": [
        "all",
        [
          "in",
          "class",
          "runway"
        ],
        [
          "==",
          "$type",
          "LineString"
        ]
      ],
      "layout": {
        "line-cap": "round",
        "line-join": "round",
        "visibility": "visible"
      },
      "paint": {
        "line-color": "rgba(255, 255, 255, 1)",
        "line-width": {
          "base": 1.5,
          "stops": [
            [
              11,
              4
            ],
            [
              17,
              50
            ]
          ]
        },
        "line-opacity": 1
      }
    },
    {
      "id": "road_trunk_primary",
      "type": "line",
      "source": "openmaptiles",
      "source-layer": "transportation",
      "filter": [
        "all",
        [
          "==",
          "$type",
          "LineString"
        ],
        [
          "in",
          "class",
          "trunk",
          "primary"
        ]
      ],
      "layout": {},
      "paint": {
        "line-offset": -1,
        "line-color": "rgba(203, 202, 188, 0.17)"
      }
    },
    {
      "id": "road_secondary_tertiary",
      "type": "line",
      "source": "openmaptiles",
      "source-layer": "transportation",
      "filter": [
        "all",
        [
          "==",
          "$type",
          "LineString"
        ],
        [
          "in",
          "class",
          "secondary",
          "tertiary"
        ]
      ],
      "layout": {
        "line-cap": "round",
        "line-join": "round"
      },
      "paint": {
        "line-color": "rgba(201, 197, 177, 0.17)",
        "line-width": {
          "base": 1.4,
          "stops": [
            [
              6,
              0.5
            ],
            [
              20,
              20
            ]
          ]
        }
      }
    },
    {
      "id": "road_major_motorway",
      "type": "line",
      "source": "openmaptiles",
      "source-layer": "transportation",
      "filter": [
        "all",
        [
          "==",
          "$type",
          "LineString"
        ],
        [
          "==",
          "class",
          "motorway"
        ]
      ],
      "layout": {
        "line-cap": "round",
        "line-join": "round"
      },
      "paint": {
        "line-color": "rgba(156, 145, 119, 0.17)",
        "line-width": {
          "base": 1.4,
          "stops": [
            [
              8,
              1
            ],
            [
              16,
              10
            ]
          ]
        },
        "line-offset": 0
      }
    },
    {
      "id": "road_oneway",
      "type": "symbol",
      "source": "openmaptiles",
      "source-layer": "transportation",
      "minzoom": 15,
      "filter": [
        "all",
        [
          "==",
          "oneway",
          1
        ]
      ],
      "layout": {
        "symbol-placement": "line",
        "icon-image": "oneway",
        "symbol-spacing": 200,
        "icon-padding": 2,
        "icon-rotation-alignment": "map",
        "icon-rotate": 0,
        "icon-size": {
          "stops": [
            [
              15,
              0.5
            ],
            [
              19,
              1
            ]
          ]
        }
      },
      "paint": {
        "icon-opacity": 0.5,
        "text-color": "rgba(0, 0, 0, 1)"
      }
    },
    {
      "id": "road_oneway_opposite",
      "type": "symbol",
      "source": "openmaptiles",
      "source-layer": "transportation",
      "minzoom": 15,
      "filter": [
        "all",
        [
          "==",
          "oneway",
          -1
        ]
      ],
      "layout": {
        "symbol-placement": "line",
        "icon-image": "oneway",
        "symbol-spacing": 200,
        "icon-padding": 2,
        "icon-rotation-alignment": "map",
        "icon-rotate": 180,
        "icon-size": {
          "stops": [
            [
              15,
              0.5
            ],
            [
              19,
              1
            ]
          ]
        }
      },
      "paint": {
        "icon-opacity": 0.5
      }
    },
    {
      "id": "railway-transit",
      "type": "line",
      "source": "openmaptiles",
      "source-layer": "transportation",
      "filter": [
        "all",
        [
          "==",
          "class",
          "transit"
        ],
        [
          "!=",
          "brunnel",
          "tunnel"
        ]
      ],
      "layout": {
        "visibility": "visible"
      },
      "paint": {
        "line-color": "hsl(34, 12%, 66%)",
        "line-opacity": {
          "base": 1,
          "stops": [
            [
              11,
              0
            ],
            [
              16,
              1
            ]
          ]
        }
      }
    },
    {
      "id": "railway",
      "type": "line",
      "source": "openmaptiles",
      "source-layer": "transportation",
      "filter": [
        "==",
        "class",
        "rail"
      ],
      "layout": {
        "visibility": "visible"
      },
      "paint": {
        "line-color": "hsl(34, 12%, 66%)",
        "line-opacity": {
          "base": 1,
          "stops": [
            [
              11,
              0
            ],
            [
              16,
              1
            ]
          ]
        }
      }
    },
    {
      "id": "waterway-bridge-case",
      "type": "line",
      "source": "openmaptiles",
      "source-layer": "waterway",
      "filter": [
        "all",
        [
          "==",
          "$type",
          "LineString"
        ],
        [
          "==",
          "brunnel",
          "bridge"
        ]
      ],
      "layout": {
        "line-cap": "butt",
        "line-join": "miter"
      },
      "paint": {
        "line-color": "#bbbbbb",
        "line-width": {
          "base": 1.6,
          "stops": [
            [
              12,
              0.5
            ],
            [
              20,
              10
            ]
          ]
        },
        "line-gap-width": {
          "base": 1.55,
          "stops": [
            [
              4,
              0.25
            ],
            [
              20,
              30
            ]
          ]
        }
      }
    },
    {
      "id": "waterway-bridge",
      "type": "line",
      "source": "openmaptiles",
      "source-layer": "waterway",
      "filter": [
        "all",
        [
          "==",
          "$type",
          "LineString"
        ],
        [
          "==",
          "brunnel",
          "bridge"
        ]
      ],
      "layout": {
        "line-cap": "round",
        "line-join": "round"
      },
      "paint": {
        "line-color": "hsl(205, 56%, 73%)",
        "line-width": {
          "base": 1.55,
          "stops": [
            [
              4,
              0.25
            ],
            [
              20,
              30
            ]
          ]
        }
      }
    },
    {
      "id": "bridge_minor case",
      "type": "line",
      "source": "openmaptiles",
      "source-layer": "transportation",
      "filter": [
        "all",
        [
          "==",
          "$type",
          "LineString"
        ],
        [
          "==",
          "brunnel",
          "bridge"
        ],
        [
          "==",
          "class",
          "minor_road"
        ]
      ],
      "layout": {
        "line-cap": "butt",
        "line-join": "miter"
      },
      "paint": {
        "line-color": "#dedede",
        "line-width": {
          "base": 1.6,
          "stops": [
            [
              12,
              0.5
            ],
            [
              20,
              10
            ]
          ]
        },
        "line-gap-width": {
          "base": 1.55,
          "stops": [
            [
              4,
              0.25
            ],
            [
              20,
              30
            ]
          ]
        }
      }
    },
    {
      "id": "bridge_major case",
      "type": "line",
      "source": "openmaptiles",
      "source-layer": "transportation",
      "filter": [
        "all",
        [
          "==",
          "$type",
          "LineString"
        ],
        [
          "==",
          "brunnel",
          "bridge"
        ],
        [
          "in",
          "class",
          "primary",
          "secondary",
          "tertiary",
          "trunk"
        ]
      ],
      "layout": {
        "line-cap": "butt",
        "line-join": "miter"
      },
      "paint": {
        "line-color": "#dedede",
        "line-width": {
          "base": 1.6,
          "stops": [
            [
              12,
              0.5
            ],
            [
              20,
              10
            ]
          ]
        },
        "line-gap-width": {
          "base": 1.55,
          "stops": [
            [
              4,
              0.25
            ],
            [
              20,
              30
            ]
          ]
        }
      }
    },
    {
      "id": "bridge_minor",
      "type": "line",
      "source": "openmaptiles",
      "source-layer": "transportation",
      "filter": [
        "all",
        [
          "==",
          "$type",
          "LineString"
        ],
        [
          "==",
          "brunnel",
          "bridge"
        ],
        [
          "==",
          "class",
          "minor_road"
        ]
      ],
      "layout": {
        "line-cap": "round",
        "line-join": "round"
      },
      "paint": {
        "line-color": "#efefef",
        "line-width": {
          "base": 1.55,
          "stops": [
            [
              4,
              0.25
            ],
            [
              20,
              30
            ]
          ]
        }
      }
    },
    {
      "id": "bridge_major",
      "type": "line",
      "source": "openmaptiles",
      "source-layer": "transportation",
      "filter": [
        "all",
        [
          "==",
          "$type",
          "LineString"
        ],
        [
          "==",
          "brunnel",
          "bridge"
        ],
        [
          "in",
          "class",
          "primary",
          "secondary",
          "tertiary",
          "trunk"
        ]
      ],
      "layout": {
        "line-cap": "round",
        "line-join": "round"
      },
      "paint": {
        "line-color": "#fff",
        "line-width": {
          "base": 1.4,
          "stops": [
            [
              6,
              0.5
            ],
            [
              20,
              30
            ]
          ]
        }
      }
    },
    {
      "id": "admin_sub",
      "type": "line",
      "source": "openmaptiles",
      "source-layer": "boundary",
      "filter": [
        "in",
        "admin_level",
        4,
        6,
        8
      ],
      "layout": {
        "visibility": "visible"
      },
      "paint": {
        "line-color": "rgba(255, 255, 255, 0.46)",
        "line-dasharray": [
          2,
          1
        ]
      }
    },
    {
      "id": "admin_country",
      "type": "line",
      "source": "openmaptiles",
      "source-layer": "boundary",
      "filter": [
        "all",
        [
          "<=",
          "admin_level",
          2
        ],
        [
          "==",
          "$type",
          "LineString"
        ]
      ],
      "layout": {
        "line-cap": "round",
        "line-join": "round"
      },
      "paint": {
        "line-color": "rgba(224, 218, 218, 1)",
        "line-width": {
          "base": 1.3,
          "stops": [
            [
              3,
              0.5
            ],
            [
              22,
              15
            ]
          ]
        }
      }
    },
    {
      "id": "building",
      "type": "fill-extrusion",
      "source": "openmaptiles",
      "source-layer": "building",
      "layout": {},
      "paint": {
        "fill-extrusion-height": 100,
        "fill-extrusion-base": 0,
        "fill-extrusion-color": "rgba(102, 133, 160, 0.16)",
        "fill-extrusion-translate": [
          0,
          0
        ],
        "fill-extrusion-translate-anchor": "map"
      }
    },
    {
      "id": "poi_label",
      "type": "symbol",
      "source": "openmaptiles",
      "source-layer": "poi",
      "minzoom": 14,
      "filter": [
        "all",
        [
          "==",
          "$type",
          "Point"
        ],
        [
          "==",
          "rank",
          1
        ]
      ],
      "layout": {
        "text-size": 11,
        "text-font": [
          "Noto Sans Regular"
        ],
        "visibility": "visible",
        "text-offset": [
          0,
          0.5
        ],
        "icon-size": 1,
        "text-anchor": "top",
        "text-field": "{name:latin}\n{name:nonlatin}",
        "text-max-width": 8
      },
      "paint": {
        "text-color": "#666",
        "text-halo-width": 1,
        "text-halo-color": "rgba(255,255,255,0.75)",
        "text-halo-blur": 1
      }
    },
    {
      "id": "airport-label",
      "type": "symbol",
      "source": "openmaptiles",
      "source-layer": "aerodrome_label",
      "minzoom": 10,
      "filter": [
        "all",
        [
          "has",
          "iata"
        ]
      ],
      "layout": {
        "text-size": 11,
        "text-font": [
          "Noto Sans Regular"
        ],
        "visibility": "visible",
        "text-offset": [
          0,
          0.5
        ],
        "icon-size": 1,
        "text-anchor": "top",
        "text-field": "{name:latin}\n{name:nonlatin}",
        "text-max-width": 8
      },
      "paint": {
        "text-color": "rgba(0, 0, 0, 1)",
        "text-halo-width": 1.5,
        "text-halo-color": "rgba(255, 255, 255, 0.75)",
        "text-halo-blur": 0
      }
    },
    {
      "id": "road_major_label",
      "type": "symbol",
      "source": "openmaptiles",
      "source-layer": "transportation_name",
      "filter": [
        "==",
        "$type",
        "LineString"
      ],
      "layout": {
        "symbol-placement": "line",
        "text-field": "{name:latin} {name:nonlatin}",
        "text-font": [
          "Noto Sans Regular"
        ],
        "text-transform": "uppercase",
        "text-letter-spacing": 0.1,
        "text-size": {
          "base": 1.4,
          "stops": [
            [
              10,
              8
            ],
            [
              20,
              14
            ]
          ]
        },
        "text-rotation-alignment": "map"
      },
      "paint": {
        "text-color": "#000",
        "text-halo-color": "hsl(0, 0%, 100%)",
        "text-halo-width": 2
      }
    },
    {
      "id": "place_label_other",
      "type": "symbol",
      "source": "openmaptiles",
      "source-layer": "place",
      "minzoom": 8,
      "filter": [
        "all",
        [
          "==",
          "$type",
          "Point"
        ],
        [
          "!in",
          "class",
          "city",
          "state",
          "country",
          "continent"
        ]
      ],
      "layout": {
        "text-field": "{name:latin}\n{name:nonlatin}",
        "text-font": [
          "Noto Sans Medium"
        ],
        "text-max-width": 6,
        "text-size": {
          "stops": [
            [
              6,
              10
            ],
            [
              12,
              14
            ]
          ]
        },
        "visibility": "visible",
        "text-anchor": "center"
      },
      "paint": {
        "text-color": "rgba(0, 0, 0, 1)",
        "text-halo-color": "hsl(0, 0%, 100%)",
        "text-halo-blur": 0,
        "text-halo-width": 2
      }
    },
    {
      "id": "place_label_city",
      "type": "symbol",
      "source": "openmaptiles",
      "source-layer": "place",
      "maxzoom": 16,
      "filter": [
        "all",
        [
          "==",
          "$type",
          "Point"
        ],
        [
          "==",
          "class",
          "city"
        ]
      ],
      "layout": {
        "text-field": "{name:latin}\n{name:nonlatin}",
        "text-font": [
          "Noto Sans Regular"
        ],
        "text-max-width": 10,
        "text-size": {
          "stops": [
            [
              3,
              12
            ],
            [
              8,
              18
            ]
          ]
        }
      },
      "paint": {
        "text-color": "hsl(0, 0%, 0%)",
        "text-halo-color": "hsla(0, 0%, 100%, 0.75)",
        "text-halo-blur": 0,
        "text-halo-width": {
          "stops": [
            [
              6,
              1.5
            ],
            [
              10,
              2
            ]
          ]
        }
      }
    },
    {
      "id": "country_label-other",
      "type": "symbol",
      "source": "openmaptiles",
      "source-layer": "place",
      "maxzoom": 12,
      "filter": [
        "all",
        [
          "==",
          "$type",
          "Point"
        ],
        [
          "==",
          "class",
          "country"
        ],
        [
          "!has",
          "iso_a2"
        ]
      ],
      "layout": {
        "text-field": "{name:latin}",
        "text-font": [
          "Noto Sans Regular"
        ],
        "text-max-width": 10,
        "text-size": {
          "stops": [
            [
              3,
              12
            ],
            [
              8,
              22
            ]
          ]
        },
        "visibility": "visible"
      },
      "paint": {
        "text-color": "hsl(0, 0%, 13%)",
        "text-halo-color": "rgba(255, 255, 255, 0.75)",
        "text-halo-width": 2,
        "text-halo-blur": 0
      }
    },
    {
      "id": "country_label",
      "type": "symbol",
      "source": "openmaptiles",
      "source-layer": "place",
      "maxzoom": 12,
      "filter": [
        "all",
        [
          "==",
          "$type",
          "Point"
        ],
        [
          "==",
          "class",
          "country"
        ],
        [
          "has",
          "iso_a2"
        ]
      ],
      "layout": {
        "text-field": "{name:latin}",
        "text-font": [
          "Noto Sans Bold"
        ],
        "text-max-width": 10,
        "text-size": {
          "stops": [
            [
              3,
              12
            ],
            [
              8,
              22
            ]
          ]
        },
        "visibility": "visible"
      },
      "paint": {
        "text-color": "hsl(0, 0%, 13%)",
        "text-halo-color": "rgba(255,255,255,0.75)",
        "text-halo-width": 2,
        "text-halo-blur": 0
      }
    },
    {
      "interactive": true,
      "id": "edificacio_a_escala_0_pol_extrude",
      "filter": [">", "elevation",
        0
      ],
      "type": "fill-extrusion",
      "paint": {
        "fill-extrusion-color": "#CCCCCC",

        "fill-extrusion-height": {
          "type": "identity",
          "property": "elevation"
        },
        "fill-extrusion-opacity": 1
      },
      "layout": {},

      "source-layer": "edificacio_a_escala_0_pol",
      "source": "mtc25mcatoff",
      "minzoom": 13,
      "maxzoom": 16
    }
  ],
  "id": "klokantech-basic"
}