<?xml version="1.0" encoding="utf-8"?>
<!-- Generated by IcoMoon.io -->
<svg version="1.1" xmlns="http://www.w3.org/2000/svg" xmlns:xlink="http://www.w3.org/1999/xlink" width="599" height="74" viewBox="0 0 599 74">
<svg id="icon__police" width="24" height="24" viewBox="0 0 24 24" x="0" y="0">
<path fill="#fff" d="M17.658 10.591c-0.070-0.099-0.146-0.198-0.224-0.299-0.316-0.408-0.642-0.829-0.642-1.411 0-0.713 0.58-1.383 0.586-1.39 0.225-0.256 0.229-0.659 0.008-0.919l-0.814-0.956c-0.125-0.147-0.311-0.232-0.509-0.232-0.146 0-0.283 0.045-0.397 0.131-0.008 0.006-0.838 0.622-1.617 0.622-0.758 0-1.576-0.586-1.584-0.592-0.244-0.177-0.664-0.207-0.931-0.063-0.008 0.004-0.804 0.427-1.582 0.427-0.775 0-1.609-0.616-1.617-0.622-0.114-0.086-0.251-0.131-0.397-0.131-0.198 0-0.384 0.084-0.509 0.232l-0.814 0.956c-0.221 0.26-0.217 0.663 0.008 0.919 0.006 0.007 0.586 0.677 0.586 1.39 0 0.582-0.326 1.003-0.642 1.411-0.078 0.101-0.154 0.2-0.224 0.298-0.718 1.013-0.83 3.993 0.008 5.040 1.85 2.313 5.067 3.138 5.203 3.172 0.14 0.035 0.331 0.055 0.523 0.055v0c0.094 0 0.233-0.005 0.36-0.029 0.136-0.026 3.357-0.652 5.212-2.971 0.838-1.048 0.727-4.027 0.008-5.040v0zM13.44 13.202l0.603 1.855-1.578-1.146c-0.127-0.092-0.292-0.143-0.465-0.143s-0.338 0.051-0.465 0.143l-1.578 1.146 0.603-1.855c0.1-0.306-0.027-0.695-0.287-0.884l-1.578-1.146h1.951c0.322 0 0.652-0.24 0.752-0.546l0.603-1.855 0.603 1.855c0.1 0.306 0.43 0.546 0.752 0.546h1.95l-1.578 1.147c-0.26 0.189-0.387 0.578-0.287 0.884v0z"></path>
</svg>
<svg id="icon__environment" width="24" height="24" viewBox="0 0 24 24" x="0" y="25">
<path fill="#fff" d="M20.13 12.618c0 0-0.839-1.375-1.772-1.375-0.931 0-1.91 1.421-1.91 1.421s-1.025-1.42-1.864-1.42c-0.71 0-1.546 0.976-1.789 1.278v5.43c0 0.544-0.056 1.004-0.167 1.383-0.111 0.378-0.276 0.686-0.494 0.922s-0.489 0.41-0.815 0.517c-0.325 0.107-0.701 0.16-1.129 0.16-0.389 0-0.737-0.058-1.046-0.175-0.308-0.119-0.568-0.286-0.779-0.504s-0.374-0.481-0.488-0.79c-0.112-0.308-0.17-0.652-0.17-1.031v-0.524h1.485c0 0.492-0.004 1.137 0.176 1.387 0.179 0.249 0.453 0.375 0.821 0.375 0.248 0 0.603-0.123 0.603-0.123s0.271-0.195 0.353-0.343c0.081-0.146 0.163-0.532 0.163-0.532s0.042-0.435 0.042-0.684v-5.555c-0.332-0.376-1.147-1.216-1.801-1.216-0.838 0-2.004 1.398-2.004 1.398s-1.118-1.398-1.864-1.398c-0.745 0-1.817 1.398-1.817 1.398s-0.327-7.317 7.084-8.063l1.072-1.491 1.026 1.491c7.642 0.466 7.084 8.063 7.084 8.063z"></path>
</svg>
<svg id="icon__incident" width="24" height="24" viewBox="0 0 24 24" x="0" y="50">
<path fill="#fff" d="M12.984 14.016v-4.031h-1.969v4.031h1.969zM12.984 18v-2.016h-1.969v2.016h1.969zM0.984 21l11.016-18.984 11.016 18.984h-22.031z"></path>
</svg>
<svg id="icon__parking" width="24" height="24" viewBox="0 0 24 24" x="25" y="50">
<path fill="#fff" d="M13.219 11.016c1.078 0 1.969-0.938 1.969-2.016s-0.891-2.016-1.969-2.016h-3.234v4.031h3.234zM12.984 3c3.328 0 6 2.672 6 6s-2.672 6-6 6h-3v6h-3.984v-18h6.984z"></path>
</svg>
<svg id="icon__tracking" width="24" height="24" viewBox="0 0 24 24" x="50" y="50">
<path fill="#fff" d="M19.078 4.922c1.828 1.828 2.906 4.313 2.906 7.078 0 5.531-4.453 9.984-9.984 9.984s-9.984-4.453-9.984-9.984 4.453-9.984 9.984-9.984h0.984v8.25c0.609 0.328 1.031 0.984 1.031 1.734 0 1.078-0.938 2.016-2.016 2.016s-2.016-0.938-2.016-2.016c0-0.75 0.422-1.406 1.031-1.734v-2.109c-1.734 0.469-3 1.969-3 3.844 0 2.203 1.781 3.984 3.984 3.984s3.984-1.781 3.984-3.984c0-1.078-0.469-2.063-1.172-2.813l1.406-1.406c1.078 1.078 1.781 2.578 1.781 4.219 0 3.328-2.672 6-6 6s-6-2.672-6-6c0-2.953 2.156-5.438 5.016-5.906v-2.016c-3.938 0.469-7.031 3.844-7.031 7.922 0 4.406 3.609 8.016 8.016 8.016s8.016-3.609 8.016-8.016c0-2.203-0.891-4.219-2.344-5.672z"></path>
</svg>
<svg id="icon__car" width="24" height="24" viewBox="0 0 24 24" x="75" y="50">
<path fill="#fff" d="M5.016 11.016h13.969l-1.5-4.5h-10.969zM17.484 15.984c0.844 0 1.5-0.656 1.5-1.5s-0.656-1.5-1.5-1.5-1.5 0.656-1.5 1.5 0.656 1.5 1.5 1.5zM6.516 15.984c0.844 0 1.5-0.656 1.5-1.5s-0.656-1.5-1.5-1.5-1.5 0.656-1.5 1.5 0.656 1.5 1.5 1.5zM18.938 6l2.063 6v8.016c0 0.563-0.422 0.984-0.984 0.984h-1.031c-0.563 0-0.984-0.422-0.984-0.984v-1.031h-12v1.031c0 0.563-0.422 0.984-0.984 0.984h-1.031c-0.563 0-0.984-0.422-0.984-0.984v-8.016l2.063-6c0.188-0.609 0.797-0.984 1.453-0.984h10.969c0.656 0 1.266 0.375 1.453 0.984z"></path>
</svg>
<svg id="icon__traffic" width="24" height="24" viewBox="0 0 24 24" x="100" y="50">
<path fill="#fff" d="M12 9c1.125 0 2.016-0.938 2.016-2.016 0-1.125-0.938-1.969-2.016-1.969-1.125 0-2.016 0.844-2.016 1.969 0 1.078 0.891 2.016 2.016 2.016zM12 14.016c1.125 0 2.016-0.938 2.016-2.016s-0.938-2.016-2.016-2.016c-1.125 0-2.016 0.938-2.016 2.016s0.891 2.016 2.016 2.016zM12 18.984c1.125 0 2.016-0.891 2.016-1.969s-0.938-2.016-2.016-2.016c-1.125 0-2.016 0.938-2.016 2.016s0.891 1.969 2.016 1.969zM20.016 9.984c0 1.875-1.266 3.422-3 3.891v1.125h3c0 1.875-1.266 3.375-3 3.844v1.172c0 0.563-0.469 0.984-1.031 0.984h-7.969c-0.563 0-1.031-0.422-1.031-0.984v-1.172c-1.734-0.469-3-1.969-3-3.844h3v-1.125c-1.734-0.469-3-2.016-3-3.891h3v-1.125c-1.734-0.469-3-1.969-3-3.844h3v-1.031c0-0.563 0.469-0.984 1.031-0.984h7.969c0.563 0 1.031 0.422 1.031 0.984v1.031h3c0 1.875-1.266 3.375-3 3.844v1.125h3z"></path>
</svg>
</svg>
